<svg width="580" height="400" xmlns="http://www.w3.org/2000/svg">
 <!-- Created with Method Draw - http://github.com/duopixel/Method-Draw/ -->
 <g>
  <title>Layer 1</title>
  <path id="svg_5" d="m575.5,3.421875" opacity="0.5" fill-opacity="null" stroke-opacity="null" stroke-width="1.5" stroke="#000" fill="#fff"/>
  <path id="svg_6" d="m279.5,220.421875" opacity="0.5" fill-opacity="null" stroke-opacity="null" stroke-width="1.5" stroke="#000" fill="#fff"/>
  <path id="svg_2" d="m580.5,0.421875c-603,349 -22,335 -22.5,334.578125c0.5,0.421875 -62.5,-11.578125 -63,-12" opacity="0.5" stroke-width="1.5" stroke="#000" fill="#fff"/>
  <rect stroke="#000" id="svg_4" height="400.000004" width="577.999994" y="0.421875" x="0.5" stroke-width="0" fill="#fff"/>
  <ellipse stroke="#000" transform="rotate(-0.17167644202709198 294.02694702143634,367.9191894531411) " ry="320.999999" rx="489.473831" id="svg_8" cy="367.919188" cx="294.026955" stroke-opacity="null" stroke-width="0" fill="#a61531"/>
 </g>
</svg>